pessoa_1_1.png -> 7.5
pessoa_1_2.png -> 7.5
pessoa_1_3.png -> 7.5
pessoa_1_4.png -> 7.5
pessoa_1_5.png -> 7.5
pessoa_1_6.png -> 7.5
pessoa_1_7.png -> 7.5
pessoa_1_8.png -> 7.5
pessoa_1_9.png -> 7.5
pessoa_1_10.png -> 7.5
pessoa_1_11.png -> 7.5
pessoa_1_12.png -> 7.5
pessoa_1_13.png -> 7.5
pessoa_1_14.png -> 7.5
pessoa_1_15.png -> 7.5
pessoa_1_16.png -> 7.5
pessoa_1_17.png -> 7.5
pessoa_1_18.png -> 7.5
pessoa_1_19.png -> 7.5
pessoa_1_20.png -> 7.5
pessoa_2_21.png -> 7.5
pessoa_2_22.png -> 7.5
pessoa_2_23.png -> 7.5
pessoa_2_24.png -> 7.5
pessoa_2_25.png -> 7.5
pessoa_2_26.png -> 7.5
pessoa_2_27.png -> 7.5
pessoa_2_28.png -> 7.5
pessoa_2_29.png -> 7.5
pessoa_2_30.png -> 7.5
pessoa_2_31.png -> 7.5
pessoa_2_32.png -> 7.5
pessoa_2_33.png -> 7.5
pessoa_2_34.png -> 7.5
pessoa_2_35.png -> 7.5
pessoa_2_36.png -> 7.5
pessoa_2_37.png -> 7.5
pessoa_2_38.png -> 7.5
pessoa_2_39.png -> 7.5
pessoa_2_40.png -> 7.5
